solide_1,solide_2,e,couleur_rouge,couleur_vert,couleur_bleu
bois,bois,0.5,222,184,135
liège,liège,0.5555555556,255,228,196
ivoire,ivoire,0.8888888888888889,255,235,205
verre,verre,0.9375,255,255,255
acier,acier,0.95,120,120,120
tennis,tennis,0.6,0,255,50
